.______      ___       __   ________      ___      .__   __.
|   _  \    /   \     |  | |       /     /   \     |  \ |  |
|  |_)  |  /  ^  \    |  | `---/  /     /  ^  \    |   \|  |
|   ___/  /  /_\  \   |  |    /  /     /  /_\  \   |  . `  |
|  |     /  _____  \  |  |   /  /----./  _____  \  |  |\   |
| _|    /__/     \__\ |__|  /________/__/     \__\ |__| \__|

 _______   ______   ______   .___  ___. .___  ___.  _______ .______        ______  _______
|   ____| /      | /  __  \  |   \/   | |   \/   | |   ____||   _  \      /      ||   ____|
|  |__   |  ,----'|  |  |  | |  \  /  | |  \  /  | |  |__   |  |_)  |    |  ,----'|  |__
|   __|  |  |     |  |  |  | |  |\/|  | |  |\/|  | |   __|  |      /     |  |     |   __|
|  |____ |  `----.|  `--'  | |  |  |  | |  |  |  | |  |____ |  |\  \----.|  `----.|  |____
|_______| \______| \______/  |__|  |__| |__|  |__| |_______|| _| `._____| \______||_______|
